SHA1_Implementation/simulation/modelsim/msim_transcript
# Reading C:/intelFPGA_lite/18.1/modelsim_ase/tcl/vsim/pref.tcl
# do SHA1_Implementation_run_msim_rtl_verilog.do
# if {[file exists rtl_work]} {
# 	vdel -lib rtl_work -all
# }
# vlib rtl_work
# vmap work rtl_work
# Model Technology ModelSim - Intel FPGA Edition vmap 10.5b Lib Mapping Utility 2016.10 Oct  5 2016
# vmap work rtl_work 
# Copying C:/intelFPGA_lite/18.1/modelsim_ase/win32aloem/../modelsim.ini to modelsim.ini
# Modifying modelsim.ini
# 
# vlog -sv -work work +incdir+D:/Studies/MS/workspace/Sem-1/FPGA/SHA-1_Project {D:/Studies/MS/workspace/Sem-1/FPGA/SHA-1_Project/sha1_engine.sv}
# Model Technology ModelSim - Intel FPGA Edition vlog 10.5b Compiler 2016.10 Oct  5 2016
# Start time: 07:18:14 on Mar 16,2022
# vlog -reportprogress 300 -sv -work work "+incdir+D:/Studies/MS/workspace/Sem-1/FPGA/SHA-1_Project" D:/Studies/MS/workspace/Sem-1/FPGA/SHA-1_Project/sha1_engine.sv 
# -- Compiling package state_machine_definitions
# -- Compiling package sha1_stage_definitions
# -- Compiling module sha1_engine
# -- Importing package state_machine_definitions
# -- Importing package sha1_stage_definitions
# 
# Top level modules:
# 	sha1_engine
# End time: 07:18:14 on Mar 16,2022, Elapsed time: 0:00:00
# Errors: 0, Warnings: 0
# vlib SHA1_Base
# ** Warning: (vlib-34) Library already exists at "SHA1_Base".
# vmap SHA1_Base SHA1_Base
# Model Technology ModelSim - Intel FPGA Edition vmap 10.5b Lib Mapping Utility 2016.10 Oct  5 2016
# vmap SHA1_Base SHA1_Base 
# Modifying modelsim.ini
# 
# vlog -sv -work work +incdir+D:/Studies/MS/workspace/Sem-1/FPGA/SHA-1_Project {D:/Studies/MS/workspace/Sem-1/FPGA/SHA-1_Project/sha1_engine_tb.sv}
# Model Technology ModelSim - Intel FPGA Edition vlog 10.5b Compiler 2016.10 Oct  5 2016
# Start time: 07:18:14 on Mar 16,2022
# vlog -reportprogress 300 -sv -work work "+incdir+D:/Studies/MS/workspace/Sem-1/FPGA/SHA-1_Project" D:/Studies/MS/workspace/Sem-1/FPGA/SHA-1_Project/sha1_engine_tb.sv 
# -- Compiling module sha1_engine_tb
# 
# Top level modules:
# 	sha1_engine_tb
# End time: 07:18:14 on Mar 16,2022, Elapsed time: 0:00:00
# Errors: 0, Warnings: 0
# 
# vsim -t 1ps -L altera_ver -L lpm_ver -L sgate_ver -L altera_mf_ver -L altera_lnsim_ver -L fiftyfivenm_ver -L rtl_work -L work -L SHA1_Base -voptargs="+acc"  sha1_engine_tb
# vsim -t 1ps -L altera_ver -L lpm_ver -L sgate_ver -L altera_mf_ver -L altera_lnsim_ver -L fiftyfivenm_ver -L rtl_work -L work -L SHA1_Base -voptargs=""+acc"" sha1_engine_tb 
# Start time: 07:18:14 on Mar 16,2022
# Loading sv_std.std
# Loading work.sha1_engine_tb
# Loading work.sha1_stage_definitions
# Loading work.state_machine_definitions
# Loading work.sha1_engine
# ** Warning: (vsim-3839) D:/Studies/MS/workspace/Sem-1/FPGA/SHA-1_Project/sha1_engine_tb.sv(14): Variable '/sha1_engine_tb/readdata', driven via a port connection, is multiply driven. See D:/Studies/MS/workspace/Sem-1/FPGA/SHA-1_Project/sha1_engine_tb.sv(149).
#    Time: 0 ps  Iteration: 0  Instance: /sha1_engine_tb File: D:/Studies/MS/workspace/Sem-1/FPGA/SHA-1_Project/sha1_engine_tb.sv
# 
# add wave *
# ** Warning: (vsim-WLF-5000) WLF file currently in use: vsim.wlf
#           File in use by: chara  Hostname: DESKTOP-GQ2UNO2  ProcessID: 28288
#           Attempting to use alternate WLF file "./wlftc6bxbb".
# ** Warning: (vsim-WLF-5001) Could not open WLF file: vsim.wlf
#           Using alternate file: ./wlftc6bxbb
# view structure
# .main_pane.structure.interior.cs.body.struct
# view signals
# .main_pane.objects.interior.cs.body.tree
# run -all
# address = 00, read = 0, Readdata = 00000000, write = 1, Writedata = 00000000
# address = 02, read = 0, Readdata = 00000000, write = 1, Writedata = 67452301
# address = 03, read = 0, Readdata = 00000000, write = 1, Writedata = efcdab89
# address = 04, read = 0, Readdata = 00000000, write = 1, Writedata = 98badcfe
# address = 05, read = 0, Readdata = 00000000, write = 1, Writedata = 10325476
# address = 06, read = 0, Readdata = 00000000, write = 1, Writedata = c3d2e1f0
# address = 06, read = 0, Readdata = 00000000, write = 0, Writedata = c3d2e1f0
# address = 06, read = 0, Readdata = 00000000, write = 1, Writedata = c3d2e1f0
# address = 07, read = 0, Readdata = 00000000, write = 1, Writedata = 61626380
# address = 08, read = 0, Readdata = 00000000, write = 1, Writedata = 00000000
# address = 09, read = 0, Readdata = 00000000, write = 1, Writedata = 00000000
# address = 0a, read = 0, Readdata = 00000000, write = 1, Writedata = 00000000
# address = 0b, read = 0, Readdata = 00000000, write = 1, Writedata = 00000000
# address = 0c, read = 0, Readdata = 00000000, write = 1, Writedata = 00000000
# address = 0d, read = 0, Readdata = 00000000, write = 1, Writedata = 00000000
# address = 0e, read = 0, Readdata = 00000000, write = 1, Writedata = 00000000
# address = 0f, read = 0, Readdata = 00000000, write = 1, Writedata = 00000000
# address = 10, read = 0, Readdata = 00000000, write = 1, Writedata = 00000000
# address = 11, read = 0, Readdata = 00000000, write = 1, Writedata = 00000000
# address = 12, read = 0, Readdata = 00000000, write = 1, Writedata = 00000000
# address = 13, read = 0, Readdata = 00000000, write = 1, Writedata = 00000000
# address = 14, read = 0, Readdata = 00000000, write = 1, Writedata = 00000000
# address = 15, read = 0, Readdata = 00000000, write = 1, Writedata = 00000000
# address = 16, read = 0, Readdata = 00000000, write = 1, Writedata = 00000018
# address = 16, read = 0, Readdata = 00000000, write = 0, Writedata = 00000018
# address = 16, read = 0, Readdata = 00000000, write = 1, Writedata = 00000018
# address = 00, read = 0, Readdata = 00000000, write = 1, Writedata = 00000001
# address = 00, read = 0, Readdata = 00000000, write = 0, Writedata = 00000001
# address = 00, read = 0, Readdata = 00000000, write = 0, Writedata = 00000001
# address = 00, read = 0, Readdata = 00000000, write = 0, Writedata = 00000001
# address = 00, read = 0, Readdata = 00000000, write = 0, Writedata = 00000001
# address = 00, read = 0, Readdata = 00000000, write = 0, Writedata = 00000001
# address = 00, read = 0, Readdata = 00000000, write = 0, Writedata = 00000001
# address = 00, read = 0, Readdata = 00000000, write = 0, Writedata = 00000001
# address = 00, read = 0, Readdata = 00000000, write = 0, Writedata = 00000001
# address = 00, read = 0, Readdata = 00000000, write = 0, Writedata = 00000001
# address = 00, read = 0, Readdata = 00000000, write = 0, Writedata = 00000001
# address = 00, read = 0, Readdata = 00000000, write = 0, Writedata = 00000001
# address = 00, read = 0, Readdata = 00000000, write = 0, Writedata = 00000001
# address = 00, read = 0, Readdata = 00000000, write = 0, Writedata = 00000001
# address = 00, read = 0, Readdata = 00000000, write = 0, Writedata = 00000001
# address = 00, read = 0, Readdata = 00000000, write = 0, Writedata = 00000001
# address = 00, read = 0, Readdata = 00000000, write = 0, Writedata = 00000001
# address = 00, read = 0, Readdata = 00000000, write = 0, Writedata = 00000001
# address = 00, read = 0, Readdata = 00000000, write = 0, Writedata = 00000001
# address = 00, read = 0, Readdata = 00000000, write = 0, Writedata = 00000001
# address = 00, read = 0, Readdata = 00000000, write = 0, Writedata = 00000001
# address = 00, read = 0, Readdata = 00000000, write = 0, Writedata = 00000001
# address = 00, read = 0, Readdata = 00000000, write = 0, Writedata = 00000001
# address = 00, read = 0, Readdata = 00000000, write = 0, Writedata = 00000001
# address = 00, read = 0, Readdata = 00000000, write = 0, Writedata = 00000001
# address = 00, read = 0, Readdata = 00000000, write = 0, Writedata = 00000001
# address = 00, read = 0, Readdata = 00000000, write = 0, Writedata = 00000001
# address = 00, read = 0, Readdata = 00000000, write = 0, Writedata = 00000001
# address = 00, read = 0, Readdata = 00000000, write = 0, Writedata = 00000001
# address = 00, read = 0, Readdata = 00000000, write = 0, Writedata = 00000001
# address = 00, read = 0, Readdata = 00000000, write = 0, Writedata = 00000001
# address = 00, read = 0, Readdata = 00000000, write = 0, Writedata = 00000001
# address = 00, read = 0, Readdata = 00000000, write = 0, Writedata = 00000001
# address = 00, read = 0, Readdata = 00000000, write = 0, Writedata = 00000001
# address = 00, read = 0, Readdata = 00000000, write = 0, Writedata = 00000001
# address = 00, read = 0, Readdata = 00000000, write = 0, Writedata = 00000001
# address = 00, read = 0, Readdata = 00000000, write = 0, Writedata = 00000001
# address = 00, read = 0, Readdata = 00000000, write = 0, Writedata = 00000001
# address = 00, read = 0, Readdata = 00000000, write = 0, Writedata = 00000001
# address = 00, read = 0, Readdata = 00000000, write = 0, Writedata = 00000001
# address = 00, read = 0, Readdata = 00000000, write = 0, Writedata = 00000001
# address = 00, read = 0, Readdata = 00000000, write = 0, Writedata = 00000001
# address = 00, read = 0, Readdata = 00000000, write = 0, Writedata = 00000001
# address = 00, read = 0, Readdata = 00000000, write = 0, Writedata = 00000001
# address = 00, read = 0, Readdata = 00000000, write = 0, Writedata = 00000001
# address = 00, read = 0, Readdata = 00000000, write = 0, Writedata = 00000001
# address = 00, read = 0, Readdata = 00000000, write = 0, Writedata = 00000001
# address = 00, read = 0, Readdata = 00000000, write = 0, Writedata = 00000001
# address = 00, read = 0, Readdata = 00000000, write = 0, Writedata = 00000001
# address = 00, read = 0, Readdata = 00000000, write = 0, Writedata = 00000001
# address = 00, read = 0, Readdata = 00000000, write = 0, Writedata = 00000001
# address = 00, read = 0, Readdata = 00000000, write = 0, Writedata = 00000001
# address = 00, read = 0, Readdata = 00000000, write = 0, Writedata = 00000001
# address = 00, read = 0, Readdata = 00000000, write = 0, Writedata = 00000001
# address = 00, read = 0, Readdata = 00000000, write = 0, Writedata = 00000001
# address = 00, read = 0, Readdata = 00000000, write = 0, Writedata = 00000001
# address = 00, read = 0, Readdata = 00000000, write = 0, Writedata = 00000001
# address = 00, read = 0, Readdata = 00000000, write = 0, Writedata = 00000001
# address = 00, read = 0, Readdata = 00000000, write = 0, Writedata = 00000001
# address = 00, read = 0, Readdata = 00000000, write = 0, Writedata = 00000001
# address = 00, read = 0, Readdata = 00000000, write = 0, Writedata = 00000001
# address = 00, read = 0, Readdata = 00000000, write = 0, Writedata = 00000001
# address = 00, read = 0, Readdata = 00000000, write = 0, Writedata = 00000001
# address = 00, read = 0, Readdata = 00000000, write = 0, Writedata = 00000001
# address = 00, read = 0, Readdata = 00000000, write = 0, Writedata = 00000001
# address = 00, read = 0, Readdata = 00000000, write = 0, Writedata = 00000001
# address = 00, read = 0, Readdata = 00000000, write = 0, Writedata = 00000001
# address = 00, read = 0, Readdata = 00000000, write = 0, Writedata = 00000001
# address = 00, read = 0, Readdata = 00000000, write = 0, Writedata = 00000001
# address = 00, read = 0, Readdata = 00000000, write = 0, Writedata = 00000001
# address = 00, read = 0, Readdata = 00000000, write = 0, Writedata = 00000001
# address = 00, read = 0, Readdata = 00000000, write = 0, Writedata = 00000001
# address = 00, read = 0, Readdata = 00000000, write = 0, Writedata = 00000001
# address = 00, read = 0, Readdata = 00000000, write = 0, Writedata = 00000001
# address = 00, read = 0, Readdata = 00000000, write = 0, Writedata = 00000001
# address = 00, read = 0, Readdata = 00000000, write = 0, Writedata = 00000001
# address = 00, read = 0, Readdata = 00000000, write = 0, Writedata = 00000001
# address = 00, read = 0, Readdata = 00000000, write = 0, Writedata = 00000001
# address = 00, read = 0, Readdata = 00000000, write = 0, Writedata = 00000001
# address = 00, read = 0, Readdata = 00000000, write = 0, Writedata = 00000001
# address = 00, read = 0, Readdata = 00000000, write = 0, Writedata = 00000001
# address = 00, read = 0, Readdata = 00000000, write = 0, Writedata = 00000001
# address = 00, read = 0, Readdata = 00000000, write = 0, Writedata = 00000001
# address = 00, read = 0, Readdata = 00000000, write = 0, Writedata = 00000001
# address = 00, read = 0, Readdata = 00000000, write = 0, Writedata = 00000001
# address = 00, read = 0, Readdata = 00000000, write = 0, Writedata = 00000001
# address = 00, read = 0, Readdata = 00000000, write = 0, Writedata = 00000001
# address = 00, read = 0, Readdata = 00000000, write = 0, Writedata = 00000001
# address = 01, read = 1, Readdata = 00000000, write = 0, Writedata = 00000001
# address = 01, read = 1, Readdata = 00000001, write = 0, Writedata = 00000001
# 00000001
# 00000001
# 00000001
# 00000001
# 00000001
# 00000001
# address = 06, read = 1, Readdata = 00000001, write = 0, Writedata = 00000001
# address = 06, read = 0, Readdata = 9cd0d89d, write = 0, Writedata = 00000001
# address = 06, read = 0, Readdata = 00000000, write = 0, Writedata = 00000001
# address = 06, read = 0, Readdata = 00000000, write = 0, Writedata = 00000001
# address = 06, read = 0, Readdata = 00000000, write = 0, Writedata = 00000001
# address = 06, read = 0, Readdata = 00000000, write = 0, Writedata = 00000001
# address = 06, read = 0, Readdata = 00000000, write = 0, Writedata = 00000001
# address = 06, read = 0, Readdata = 00000000, write = 0, Writedata = 00000001
# address = 06, read = 0, Readdata = 00000000, write = 0, Writedata = 00000001
# address = 06, read = 0, Readdata = 00000000, write = 0, Writedata = 00000001
# address = 06, read = 0, Readdata = 00000000, write = 0, Writedata = 00000001
# address = 06, read = 0, Readdata = 00000000, write = 0, Writedata = 00000001
# address = 06, read = 0, Readdata = 00000000, write = 0, Writedata = 00000001
# address = 06, read = 0, Readdata = 00000000, write = 0, Writedata = 00000001
# address = 06, read = 0, Readdata = 00000000, write = 0, Writedata = 00000001
# address = 06, read = 0, Readdata = 00000000, write = 0, Writedata = 00000001
# address = 06, read = 0, Readdata = 00000000, write = 0, Writedata = 00000001
# address = 06, read = 0, Readdata = 00000000, write = 0, Writedata = 00000001
# address = 06, read = 0, Readdata = 00000000, write = 0, Writedata = 00000001
# address = 06, read = 0, Readdata = 00000000, write = 0, Writedata = 00000001
# address = 06, read = 0, Readdata = 00000000, write = 0, Writedata = 00000001
# address = 06, read = 0, Readdata = 00000000, write = 0, Writedata = 00000001
# address = 06, read = 0, Readdata = 00000000, write = 0, Writedata = 00000001
# address = 06, read = 0, Readdata = 00000000, write = 0, Writedata = 00000001
# address = 06, read = 0, Readdata = 00000000, write = 0, Writedata = 00000001
# address = 06, read = 0, Readdata = 00000000, write = 0, Writedata = 00000001
# address = 06, read = 0, Readdata = 00000000, write = 0, Writedata = 00000001
# address = 06, read = 0, Readdata = 00000000, write = 0, Writedata = 00000001
# address = 06, read = 0, Readdata = 00000000, write = 0, Writedata = 00000001
# address = 06, read = 0, Readdata = 00000000, write = 0, Writedata = 00000001
# address = 06, read = 0, Readdata = 00000000, write = 0, Writedata = 00000001
# address = 06, read = 0, Readdata = 00000000, write = 0, Writedata = 00000001
# address = 06, read = 0, Readdata = 00000000, write = 0, Writedata = 00000001
# address = 06, read = 0, Readdata = 00000000, write = 0, Writedata = 00000001
# address = 06, read = 0, Readdata = 00000000, write = 0, Writedata = 00000001
# address = 06, read = 0, Readdata = 00000000, write = 0, Writedata = 00000001
# address = 06, read = 0, Readdata = 00000000, write = 0, Writedata = 00000001
# address = 06, read = 0, Readdata = 00000000, write = 0, Writedata = 00000001
# address = 06, read = 0, Readdata = 00000000, write = 0, Writedata = 00000001
# address = 06, read = 0, Readdata = 00000000, write = 0, Writedata = 00000001
# address = 06, read = 0, Readdata = 00000000, write = 0, Writedata = 00000001
# address = 06, read = 0, Readdata = 00000000, write = 0, Writedata = 00000001
# address = 06, read = 0, Readdata = 00000000, write = 0, Writedata = 00000001
# address = 06, read = 0, Readdata = 00000000, write = 0, Writedata = 00000001
# address = 06, read = 0, Readdata = 00000000, write = 0, Writedata = 00000001
# address = 06, read = 0, Readdata = 00000000, write = 0, Writedata = 00000001
# address = 06, read = 0, Readdata = 00000000, write = 0, Writedata = 00000001
# address = 06, read = 0, Readdata = 00000000, write = 0, Writedata = 00000001
# address = 06, read = 0, Readdata = 00000000, write = 0, Writedata = 00000001
# address = 06, read = 0, Readdata = 00000000, write = 0, Writedata = 00000001
# address = 06, read = 0, Readdata = 00000000, write = 0, Writedata = 00000001
# address = 06, read = 0, Readdata = 00000000, write = 0, Writedata = 00000001
# address = 06, read = 0, Readdata = 00000000, write = 0, Writedata = 00000001
# address = 06, read = 0, Readdata = 00000000, write = 0, Writedata = 00000001
# address = 06, read = 0, Readdata = 00000000, write = 0, Writedata = 00000001
# address = 06, read = 0, Readdata = 00000000, write = 0, Writedata = 00000001
# address = 06, read = 0, Readdata = 00000000, write = 0, Writedata = 00000001
# address = 06, read = 0, Readdata = 00000000, write = 0, Writedata = 00000001
# address = 06, read = 0, Readdata = 00000000, write = 0, Writedata = 00000001
# address = 06, read = 0, Readdata = 00000000, write = 0, Writedata = 00000001
# address = 06, read = 0, Readdata = 00000000, write = 0, Writedata = 00000001
# address = 06, read = 0, Readdata = 00000000, write = 0, Writedata = 00000001
# address = 06, read = 0, Readdata = 00000000, write = 0, Writedata = 00000001
# address = 06, read = 0, Readdata = 00000000, write = 0, Writedata = 00000001
# address = 06, read = 0, Readdata = 00000000, write = 0, Writedata = 00000001
# address = 06, read = 0, Readdata = 00000000, write = 0, Writedata = 00000001
# address = 06, read = 0, Readdata = 00000000, write = 0, Writedata = 00000001
# address = 06, read = 0, Readdata = 00000000, write = 0, Writedata = 00000001
# address = 06, read = 0, Readdata = 00000000, write = 0, Writedata = 00000001
# address = 06, read = 0, Readdata = 00000000, write = 0, Writedata = 00000001
# address = 06, read = 0, Readdata = 00000000, write = 0, Writedata = 00000001
# address = 06, read = 0, Readdata = 00000000, write = 0, Writedata = 00000001
# address = 06, read = 0, Readdata = 00000000, write = 0, Writedata = 00000001
# address = 06, read = 0, Readdata = 00000000, write = 0, Writedata = 00000001
# address = 06, read = 0, Readdata = 00000000, write = 0, Writedata = 00000001
# address = 06, read = 0, Readdata = 00000000, write = 0, Writedata = 00000001
# address = 06, read = 0, Readdata = 00000000, write = 0, Writedata = 00000001
# address = 06, read = 0, Readdata = 00000000, write = 0, Writedata = 00000001
# address = 06, read = 0, Readdata = 00000000, write = 0, Writedata = 00000001
# address = 06, read = 0, Readdata = 00000000, write = 0, Writedata = 00000001
# address = 06, read = 0, Readdata = 00000000, write = 0, Writedata = 00000001
# address = 06, read = 0, Readdata = 00000000, write = 0, Writedata = 00000001
# address = 06, read = 0, Readdata = 00000000, write = 0, Writedata = 00000001
# address = 06, read = 0, Readdata = 00000000, write = 0, Writedata = 00000001
# address = 06, read = 0, Readdata = 00000000, write = 0, Writedata = 00000001
# address = 06, read = 0, Readdata = 00000000, write = 0, Writedata = 00000001
# address = 06, read = 0, Readdata = 00000000, write = 0, Writedata = 00000001
# address = 06, read = 0, Readdata = 00000000, write = 0, Writedata = 00000001
# address = 06, read = 0, Readdata = 00000000, write = 0, Writedata = 00000001
# address = 06, read = 0, Readdata = 00000000, write = 0, Writedata = 00000001
# address = 06, read = 0, Readdata = 00000000, write = 0, Writedata = 00000001
# address = 06, read = 0, Readdata = 00000000, write = 0, Writedata = 00000001
# address = 06, read = 0, Readdata = 00000000, write = 0, Writedata = 00000001
# address = 06, read = 0, Readdata = 00000000, write = 0, Writedata = 00000001
# address = 06, read = 0, Readdata = 00000000, write = 0, Writedata = 00000001
# address = 06, read = 0, Readdata = 00000000, write = 0, Writedata = 00000001
# address = 06, read = 0, Readdata = 00000000, write = 0, Writedata = 00000001
# address = 06, read = 0, Readdata = 00000000, write = 0, Writedata = 00000001
# address = 06, read = 0, Readdata = 00000000, write = 0, Writedata = 00000001
# address = 06, read = 0, Readdata = 00000000, write = 0, Writedata = 00000001
# address = 06, read = 0, Readdata = 00000000, write = 0, Writedata = 00000001
# address = 06, read = 0, Readdata = 00000000, write = 0, Writedata = 00000001
# address = 06, read = 0, Readdata = 00000000, write = 0, Writedata = 00000001
# address = 06, read = 0, Readdata = 00000000, write = 0, Writedata = 00000001
# address = 06, read = 0, Readdata = 00000000, write = 0, Writedata = 00000001
# address = 06, read = 0, Readdata = 00000000, write = 0, Writedata = 00000001
# address = 06, read = 0, Readdata = 00000000, write = 0, Writedata = 00000001
# address = 06, read = 0, Readdata = 00000000, write = 0, Writedata = 00000001
# address = 06, read = 0, Readdata = 00000000, write = 0, Writedata = 00000001
# address = 06, read = 0, Readdata = 00000000, write = 0, Writedata = 00000001
# address = 06, read = 0, Readdata = 00000000, write = 0, Writedata = 00000001
# address = 06, read = 0, Readdata = 00000000, write = 0, Writedata = 00000001
# address = 06, read = 0, Readdata = 00000000, write = 0, Writedata = 00000001
# address = 06, read = 0, Readdata = 00000000, write = 0, Writedata = 00000001
# address = 06, read = 0, Readdata = 00000000, write = 0, Writedata = 00000001
# address = 06, read = 0, Readdata = 00000000, write = 0, Writedata = 00000001
# address = 06, read = 0, Readdata = 00000000, write = 0, Writedata = 00000001
# address = 06, read = 0, Readdata = 00000000, write = 0, Writedata = 00000001
# address = 06, read = 0, Readdata = 00000000, write = 0, Writedata = 00000001
# address = 06, read = 0, Readdata = 00000000, write = 0, Writedata = 00000001
# address = 06, read = 0, Readdata = 00000000, write = 0, Writedata = 00000001
# address = 06, read = 0, Readdata = 00000000, write = 0, Writedata = 00000001
# address = 06, read = 0, Readdata = 00000000, write = 0, Writedata = 00000001
# address = 06, read = 0, Readdata = 00000000, write = 0, Writedata = 00000001
# address = 06, read = 0, Readdata = 00000000, write = 0, Writedata = 00000001
# address = 06, read = 0, Readdata = 00000000, write = 0, Writedata = 00000001
# address = 06, read = 0, Readdata = 00000000, write = 0, Writedata = 00000001
# address = 06, read = 0, Readdata = 00000000, write = 0, Writedata = 00000001
# address = 06, read = 0, Readdata = 00000000, write = 0, Writedata = 00000001
# address = 06, read = 0, Readdata = 00000000, write = 0, Writedata = 00000001
# address = 06, read = 0, Readdata = 00000000, write = 0, Writedata = 00000001
# address = 06, read = 0, Readdata = 00000000, write = 0, Writedata = 00000001
# address = 06, read = 0, Readdata = 00000000, write = 0, Writedata = 00000001
# address = 06, read = 0, Readdata = 00000000, write = 0, Writedata = 00000001
# address = 06, read = 0, Readdata = 00000000, write = 0, Writedata = 00000001
# address = 06, read = 0, Readdata = 00000000, write = 0, Writedata = 00000001
# address = 06, read = 0, Readdata = 00000000, write = 0, Writedata = 00000001
# address = 06, read = 0, Readdata = 00000000, write = 0, Writedata = 00000001
# address = 06, read = 0, Readdata = 00000000, write = 0, Writedata = 00000001
# address = 06, read = 0, Readdata = 00000000, write = 0, Writedata = 00000001
# address = 06, read = 0, Readdata = 00000000, write = 0, Writedata = 00000001
# address = 06, read = 0, Readdata = 00000000, write = 0, Writedata = 00000001
# address = 06, read = 0, Readdata = 00000000, write = 0, Writedata = 00000001
# address = 06, read = 0, Readdata = 00000000, write = 0, Writedata = 00000001
# address = 06, read = 0, Readdata = 00000000, write = 0, Writedata = 00000001
# address = 06, read = 0, Readdata = 00000000, write = 0, Writedata = 00000001
# address = 06, read = 0, Readdata = 00000000, write = 0, Writedata = 00000001
# address = 06, read = 0, Readdata = 00000000, write = 0, Writedata = 00000001
# address = 06, read = 0, Readdata = 00000000, write = 0, Writedata = 00000001
# address = 06, read = 0, Readdata = 00000000, write = 0, Writedata = 00000001
# address = 06, read = 0, Readdata = 00000000, write = 0, Writedata = 00000001
# address = 06, read = 0, Readdata = 00000000, write = 0, Writedata = 00000001
# address = 06, read = 0, Readdata = 00000000, write = 0, Writedata = 00000001
# address = 06, read = 0, Readdata = 00000000, write = 0, Writedata = 00000001
# address = 06, read = 0, Readdata = 00000000, write = 0, Writedata = 00000001
# address = 06, read = 0, Readdata = 00000000, write = 0, Writedata = 00000001
# address = 06, read = 0, Readdata = 00000000, write = 0, Writedata = 00000001
# address = 06, read = 0, Readdata = 00000000, write = 0, Writedata = 00000001
# address = 06, read = 0, Readdata = 00000000, write = 0, Writedata = 00000001
# address = 06, read = 0, Readdata = 00000000, write = 0, Writedata = 00000001
# address = 06, read = 0, Readdata = 00000000, write = 0, Writedata = 00000001
# address = 06, read = 0, Readdata = 00000000, write = 0, Writedata = 00000001
# address = 06, read = 0, Readdata = 00000000, write = 0, Writedata = 00000001
# address = 06, read = 0, Readdata = 00000000, write = 0, Writedata = 00000001
# address = 06, read = 0, Readdata = 00000000, write = 0, Writedata = 00000001
# address = 06, read = 0, Readdata = 00000000, write = 0, Writedata = 00000001
# address = 06, read = 0, Readdata = 00000000, write = 0, Writedata = 00000001
# address = 06, read = 0, Readdata = 00000000, write = 0, Writedata = 00000001
# address = 06, read = 0, Readdata = 00000000, write = 0, Writedata = 00000001
# address = 06, read = 0, Readdata = 00000000, write = 0, Writedata = 00000001
# address = 06, read = 0, Readdata = 00000000, write = 0, Writedata = 00000001
# address = 06, read = 0, Readdata = 00000000, write = 0, Writedata = 00000001
# address = 06, read = 0, Readdata = 00000000, write = 0, Writedata = 00000001
# address = 06, read = 0, Readdata = 00000000, write = 0, Writedata = 00000001
# address = 06, read = 0, Readdata = 00000000, write = 0, Writedata = 00000001
# address = 06, read = 0, Readdata = 00000000, write = 0, Writedata = 00000001
# address = 06, read = 0, Readdata = 00000000, write = 0, Writedata = 00000001
# address = 06, read = 0, Readdata = 00000000, write = 0, Writedata = 00000001
# address = 06, read = 0, Readdata = 00000000, write = 0, Writedata = 00000001
# address = 06, read = 0, Readdata = 00000000, write = 0, Writedata = 00000001
# address = 06, read = 0, Readdata = 00000000, write = 0, Writedata = 00000001
# address = 06, read = 0, Readdata = 00000000, write = 0, Writedata = 00000001
# address = 06, read = 0, Readdata = 00000000, write = 0, Writedata = 00000001
# address = 06, read = 0, Readdata = 00000000, write = 0, Writedata = 00000001
# address = 06, read = 0, Readdata = 00000000, write = 0, Writedata = 00000001
# address = 06, read = 0, Readdata = 00000000, write = 0, Writedata = 00000001
# address = 06, read = 0, Readdata = 00000000, write = 0, Writedata = 00000001
# address = 06, read = 0, Readdata = 00000000, write = 0, Writedata = 00000001
# address = 06, read = 0, Readdata = 00000000, write = 0, Writedata = 00000001
# address = 06, read = 0, Readdata = 00000000, write = 0, Writedata = 00000001
# address = 06, read = 0, Readdata = 00000000, write = 0, Writedata = 00000001
# address = 06, read = 0, Readdata = 00000000, write = 0, Writedata = 00000001
# address = 06, read = 0, Readdata = 00000000, write = 0, Writedata = 00000001
# address = 06, read = 0, Readdata = 00000000, write = 0, Writedata = 00000001
# address = 06, read = 0, Readdata = 00000000, write = 0, Writedata = 00000001
# address = 06, read = 0, Readdata = 00000000, write = 0, Writedata = 00000001
# address = 06, read = 0, Readdata = 00000000, write = 0, Writedata = 00000001
# address = 06, read = 0, Readdata = 00000000, write = 0, Writedata = 00000001
# address = 06, read = 0, Readdata = 00000000, write = 0, Writedata = 00000001
# address = 06, read = 0, Readdata = 00000000, write = 0, Writedata = 00000001
# address = 06, read = 0, Readdata = 00000000, write = 0, Writedata = 00000001
# address = 06, read = 0, Readdata = 00000000, write = 0, Writedata = 00000001
# address = 06, read = 0, Readdata = 00000000, write = 0, Writedata = 00000001
# address = 06, read = 0, Readdata = 00000000, write = 0, Writedata = 00000001
# address = 06, read = 0, Readdata = 00000000, write = 0, Writedata = 00000001
# address = 06, read = 0, Readdata = 00000000, write = 0, Writedata = 00000001
# address = 06, read = 0, Readdata = 00000000, write = 0, Writedata = 00000001
# address = 06, read = 0, Readdata = 00000000, write = 0, Writedata = 00000001
# address = 06, read = 0, Readdata = 00000000, write = 0, Writedata = 00000001
# address = 06, read = 0, Readdata = 00000000, write = 0, Writedata = 00000001
# address = 06, read = 0, Readdata = 00000000, write = 0, Writedata = 00000001
# address = 06, read = 0, Readdata = 00000000, write = 0, Writedata = 00000001
# address = 06, read = 0, Readdata = 00000000, write = 0, Writedata = 00000001
# address = 06, read = 0, Readdata = 00000000, write = 0, Writedata = 00000001
# address = 06, read = 0, Readdata = 00000000, write = 0, Writedata = 00000001
# address = 06, read = 0, Readdata = 00000000, write = 0, Writedata = 00000001
# address = 06, read = 0, Readdata = 00000000, write = 0, Writedata = 00000001
# address = 06, read = 0, Readdata = 00000000, write = 0, Writedata = 00000001
# address = 06, read = 0, Readdata = 00000000, write = 0, Writedata = 00000001
# address = 06, read = 0, Readdata = 00000000, write = 0, Writedata = 00000001
# address = 06, read = 0, Readdata = 00000000, write = 0, Writedata = 00000001
# address = 06, read = 0, Readdata = 00000000, write = 0, Writedata = 00000001
# address = 06, read = 0, Readdata = 00000000, write = 0, Writedata = 00000001
# address = 06, read = 0, Readdata = 00000000, write = 0, Writedata = 00000001
# address = 06, read = 0, Readdata = 00000000, write = 0, Writedata = 00000001
# address = 06, read = 0, Readdata = 00000000, write = 0, Writedata = 00000001
# address = 06, read = 0, Readdata = 00000000, write = 0, Writedata = 00000001
# address = 06, read = 0, Readdata = 00000000, write = 0, Writedata = 00000001
# address = 06, read = 0, Readdata = 00000000, write = 0, Writedata = 00000001
# address = 06, read = 0, Readdata = 00000000, write = 0, Writedata = 00000001
# address = 06, read = 0, Readdata = 00000000, write = 0, Writedata = 00000001
# address = 06, read = 0, Readdata = 00000000, write = 0, Writedata = 00000001
# address = 06, read = 0, Readdata = 00000000, write = 0, Writedata = 00000001
# address = 06, read = 0, Readdata = 00000000, write = 0, Writedata = 00000001
# address = 06, read = 0, Readdata = 00000000, write = 0, Writedata = 00000001
# address = 06, read = 0, Readdata = 00000000, write = 0, Writedata = 00000001
# address = 06, read = 0, Readdata = 00000000, write = 0, Writedata = 00000001
# address = 06, read = 0, Readdata = 00000000, write = 0, Writedata = 00000001
# address = 06, read = 0, Readdata = 00000000, write = 0, Writedata = 00000001
# address = 06, read = 0, Readdata = 00000000, write = 0, Writedata = 00000001
# address = 06, read = 0, Readdata = 00000000, write = 0, Writedata = 00000001
# address = 06, read = 0, Readdata = 00000000, write = 0, Writedata = 00000001
# address = 06, read = 0, Readdata = 00000000, write = 0, Writedata = 00000001
